<?xml version="1.0" encoding="utf-8"?>
<!-- Generator: Adobe Illustrator 16.0.0, SVG Export Plug-In . SVG Version: 6.00 Build 0)  -->
<!DOCTYPE svg PUBLIC "-//W3C//DTD SVG 1.1//EN" "http://www.w3.org/Graphics/SVG/1.1/DTD/svg11.dtd">
<svg version="1.1" xmlns="http://www.w3.org/2000/svg" xmlns:xlink="http://www.w3.org/1999/xlink" x="0px" y="0px" width="7.281px"
	 height="7.094px" viewBox="0 0 7.281 7.094" enable-background="new 0 0 7.281 7.094" xml:space="preserve">
<g id="Слой_1">
	<g>
		<defs>
			<circle id="SVGID_1_" cx="3.103" cy="3.061" r="2.604"/>
		</defs>
		<clipPath id="SVGID_2_">
			<use xlink:href="#SVGID_1_"  overflow="visible"/>
		</clipPath>
		<g clip-path="url(#SVGID_2_)">
			<defs>
				<rect id="SVGID_3_" x="-366.19" y="-15.473" width="441.129" height="351.984"/>
			</defs>
			<clipPath id="SVGID_4_">
				<use xlink:href="#SVGID_3_"  overflow="visible"/>
			</clipPath>
			<rect x="-1.033" y="-1.075" clip-path="url(#SVGID_4_)" fill="#FFFFFF" width="8.271" height="8.271"/>
		</g>
	</g>
	<g>
		<defs>
			<rect id="SVGID_5_" x="-366.19" y="-15.473" width="441.129" height="351.984"/>
		</defs>
		<clipPath id="SVGID_6_">
			<use xlink:href="#SVGID_5_"  overflow="visible"/>
		</clipPath>
		
			<circle clip-path="url(#SVGID_6_)" fill="none" stroke="#81b668" stroke-width="0.5" stroke-miterlimit="10" cx="3.103" cy="3.061" r="2.604"/>
		
			<line clip-path="url(#SVGID_6_)" fill="none" stroke="#81b668" stroke-width="0.5" stroke-linecap="round" stroke-miterlimit="10" x1="4.976" y1="4.967" x2="6.803" y2="6.792"/>
	</g>
</g>
<g id="Слой_2">
</g>
</svg>
